{"data":[{"id":1,"title":"David and Accademia Gallery VIP Tour","language":null,"duration":"2 hours","description":"Exclusive tour of Accademia Gallery","date":"2025-08-30","time":"09:00","guide_id":3,"guide_name":"Sofia Esposito","booking_channel":"Website","booking_reference":null,"paid":true,"cancelled":false,"cancellation_reason":null,"external_id":null,"external_source":null,"bokun_booking_id":null,"bokun_experience_id":null,"bokun_confirmation_code":null,"participants":null,"price":null,"customer_name":null,"customer_email":null,"customer_phone":null,"needs_guide_assignment":0,"bokun_data":null,"last_sync":"2025-10-01 01:10:44","last_synced":null,"created_at":"2025-08-29 16:36:14","updated_at":"2025-10-19 23:26:25","total_amount_paid":300,"expected_amount":null,"payment_notes":null,"payment_status":"paid","payment_method":null,"notes":"Test note for priority ticket booking","rescheduled":false,"original_date":null,"original_time":null,"rescheduled_at":null},{"id":2,"title":"Private Tour-Pitti Palace & Boboli Gardens","language":null,"duration":"3 hours","description":"Explore Pitti Palace","date":"2025-08-31","time":"10:30","guide_id":2,"guide_name":"Marco Rossi","booking_channel":"Viator","booking_reference":null,"paid":true,"cancelled":false,"cancellation_reason":null,"external_id":null,"external_source":null,"bokun_booking_id":null,"bokun_experience_id":null,"bokun_confirmation_code":null,"participants":null,"price":null,"customer_name":null,"customer_email":null,"customer_phone":null,"needs_guide_assignment":0,"bokun_data":null,"last_sync":null,"last_synced":null,"created_at":"2025-08-29 16:36:14","updated_at":"2025-10-15 00:25:09","total_amount_paid":70,"expected_amount":null,"payment_notes":null,"payment_status":"paid","payment_method":null,"notes":null,"rescheduled":false,"original_date":null,"original_time":null,"rescheduled_at":null},{"id":56,"title":"Uffizi Gallery Small Group Guided Tour with Tickets","language":"English","duration":null,"description":null,"date":"2025-09-16","time":"15:00","guide_id":null,"guide_name":null,"booking_channel":"Airbnb","booking_reference":null,"paid":false,"cancelled":false,"cancellation_reason":null,"external_id":"ABNB-74186895","external_source":"bokun","bokun_booking_id":"74186895","bokun_experience_id":null,"bokun_confirmation_code":"ABNB-74186895","participants":1,"price":null,"customer_name":"Bridget Guess","customer_email":null,"customer_phone":null,"needs_guide_assignment":1,"bokun_data":"{\"id\": 74186895, \"labels\": [], \"seller\": {\"id\": 119201, \"flags\": [], \"title\": \"Airbnb\"}, \"channel\": {\"id\": 347429, \"title\": \"Airbnb\", \"channelType\": \"OTA\", \"showToSuppliers\": false}, \"currency\": \"USD\", \"customer\": {\"id\": 172963264, \"sex\": null, \"tags\": null, \"uuid\": null, \"email\": null, \"place\": null, \"state\": null, \"title\": null, \"address\": null, \"country\": null, \"created\": null, \"clcEmail\": false, \"language\": null, \"lastName\": \"Guess\", \"octoNote\": null, \"postCode\": null, \"firstName\": \"Bridget\", \"passportId\": null, \"credentials\": null, \"dateOfBirth\": null, \"nationality\": null, \"phoneNumber\": null, \"organization\": null, \"passportExpDay\": null, \"passportExpYear\": null, \"acceptsMarketing\": false, \"passportExpMonth\": null, \"personalIdNumber\": null, \"phoneNumberLinkable\": null, \"contactDetailsHidden\": false, \"phoneNumberCountryCode\": null, \"contactDetailsHiddenUntil\": null}, \"viewerRole\": \"OTA_SUPPLIER\", \"creationDate\": 1758014980000, \"salesSegment\": \"OTA\", \"paymentStatus\": \"INVOICED\", \"paidPercentage\": 0, \"productBookings\": [{\"id\": 108135248, \"agent\": null, \"notes\": [], \"fields\": {\"pickup\": false, \"rateId\": 1861233, \"dropoff\": false, \"flexible\": false, \"rateTitle\": \"Uffizi Gallery Small Group Guided Tour with Tickets\", \"startHour\": 15, \"comboParent\": false, \"startMinute\": 0, \"startTimeId\": 3465012, \"bookedExtras\": [], \"startTimeStr\": \"15:00\", \"startTimeLabel\": null, \"customizedPrice\": 0, \"partnerBookings\": [], \"customizedBooking\": false, \"totalParticipants\": 1, \"partOfComboBooking\": false, \"customizedStartTime\": null, \"pickupPlaceRoomNumber\": null, \"priceCategoryBookings\": [{\"age\": 0, \"flags\": [], \"extras\": [], \"answers\": [], \"quantity\": 1, \"occupancy\": 1, \"bookedTitle\": \"Adult\", \"leadPassenger\": false, \"bookingAnswers\": [], \"pricingCategory\": {\"id\": 783460, \"flags\": [], \"title\": \"Adult\", \"maxAge\": 99, \"minAge\": 18, \"dependent\": false, \"fullTitle\": \"Adult (18 - 99)\", \"groupSize\": 1, \"occupancy\": 1, \"ageQualified\": true, \"maxPerMaster\": 0, \"ticketCategory\": \"ADULT\", \"defaultCategory\": false, \"internalUseOnly\": false, \"maxDependentSum\": 0, \"masterCategoryId\": null, \"sumDependentCategories\": false}, \"pricingCategoryId\": 783460}], \"selectedFlexDayOption\": null, \"pickupPlaceDescription\": null, \"dropoffPlaceDescription\": null}, \"labels\": [], \"resold\": false, \"seller\": {\"id\": 119201, \"flags\": [], \"title\": \"Airbnb\"}, \"status\": \"CONFIRMED\", \"vendor\": {\"id\": 96929, \"flags\": [], \"title\": \"Florence With Locals Group Tours\"}, \"channel\": {\"id\": 0, \"flags\": []}, \"endDate\": 1757980800000, \"prepaid\": false, \"product\": {\"id\": 961801, \"flags\": [], \"title\": \"Uffizi Gallery Small Group Guided Tour with Tickets\"}, \"currency\": \"ISK\", \"customer\": {\"id\": 0, \"sex\": null, \"tags\": null, \"uuid\": null, \"email\": null, \"place\": null, \"state\": null, \"title\": null, \"address\": null, \"country\": null, \"created\": null, \"clcEmail\": false, \"language\": null, \"lastName\": null, \"octoNote\": null, \"postCode\": null, \"firstName\": null, \"passportId\": null, \"credentials\": null, \"dateOfBirth\": null, \"nationality\": null, \"phoneNumber\": null, \"organization\": null, \"passportExpDay\": null, \"passportExpYear\": null, \"acceptsMarketing\": false, \"passportExpMonth\": null, \"personalIdNumber\": null, \"phoneNumberLinkable\": null, \"contactDetailsHidden\": false, \"phoneNumberCountryCode\": null, \"contactDetailsHiddenUntil\": null}, \"hasNotes\": false, \"paidType\": null, \"affiliate\": null, \"channelId\": \"OTA_AIRBNB\", \"rateTitle\": \"Uffizi Gallery Small Group Guided Tour with Tickets\", \"startDate\": 1757980800000, \"boxBooking\": false, \"boxProduct\": null, \"cancelNote\": null, \"offerUsage\": null, \"paidAmount\": 0, \"saleSource\": null, \"totalPrice\": 0, \"boxSupplier\": null, \"cancelledBy\": null, \"endDateTime\": 1758040200000, \"productType\": \"ACTIVITIES\", \"creationDate\": 1758014980000, \"extranetUser\": null, \"startDateTime\": 1758034800000, \"discountAmount\": 0, \"lastFourDigits\": null, \"agentCommission\": 0, \"customerInvoice\": {\"total\": 85.64, \"currency\": \"USD\", \"totalDue\": 85.64, \"totalDiscount\": 0, \"totalCommission\": 0, \"totalSansDiscount\": 85.64, \"totalSansCommission\": 85.64, \"excludedAppliedTaxes\": [], \"includedAppliedTaxes\": []}, \"parentBookingId\": 74186895, \"productCategory\": \"ACTIVITIES\", \"resellerInvoice\": {\"total\": 72.59, \"currency\": \"EUR\", \"totalDue\": 58.07, \"totalDiscount\": 0, \"totalCommission\": 14.52, \"totalSansDiscount\": 72.59, \"totalSansCommission\": 58.07, \"excludedAppliedTaxes\": [], \"includedAppliedTaxes\": []}, \"specialRequests\": null, \"affiliateInvoice\": null, \"cancellationDate\": null, \"confirmationCode\": null, \"conversationOpen\": false, \"refundProtection\": false, \"resellerPaidType\": null, \"sellerCommission\": 14.52, \"totalPriceAmount\": 0, \"assignedResources\": [], \"productExternalId\": \"426324P16\", \"totalParticipants\": 1, \"activityCategories\": [], \"discountPercentage\": 0, \"affiliateCommission\": 0, \"bookingCreationDate\": 1758014980000, \"contactDetailsHidden\": false, \"inventoryConfirmFailed\": false, \"productConfirmationCode\": \"WEB-T108135248\", \"externalBookingReference\": null, \"modificationConfigStatus\": null, \"contactDetailsHiddenUntil\": null, \"externalBookingEntityCode\": null, \"externalBookingEntityName\": null, \"inventoryServiceRefNumber\": null, \"conversationAwaitingVendorIds\": []}], \"confirmationCode\": \"ABNB-74186895\", \"externalBookingReference\": \"TASQE3D9\"}","last_sync":"2025-09-28 09:06:46","last_synced":"2025-09-28 09:06:46","created_at":"2025-09-28 11:06:46","updated_at":"2025-10-15 00:48:42","total_amount_paid":0,"expected_amount":0,"payment_notes":null,"payment_status":"unpaid","payment_method":null,"notes":null,"rescheduled":false,"original_date":null,"original_time":null,"rescheduled_at":null},{"id":57,"title":"David and Accademia Gallery VIP Tour in Florence ","language":"English","duration":null,"description":null,"date":"2025-09-16","time":"16:30","guide_id":null,"guide_name":null,"booking_channel":"GetYourGuide","booking_reference":null,"paid":false,"cancelled":false,"cancellation_reason":null,"external_id":"GET-74181341","external_source":"bokun","bokun_booking_id":"74181341","bokun_experience_id":null,"bokun_confirmation_code":"GET-74181341","participants":1,"price":null,"customer_name":"Purav Mehta","customer_email":"customer-fklukdn2u3w55con@reply.getyourguide.com","customer_phone":"+919619701443","needs_guide_assignment":1,"bokun_data":"{\"id\": 74181341, \"labels\": [], \"seller\": {\"id\": 5197, \"flags\": [], \"title\": \"GetYourGuide\"}, \"channel\": {\"id\": 12298, \"title\": \"GetYourGuide\", \"channelType\": \"OTA\", \"showToSuppliers\": true}, \"currency\": \"EUR\", \"customer\": {\"id\": 172950818, \"sex\": null, \"tags\": null, \"uuid\": null, \"email\": \"customer-fklukdn2u3w55con@reply.getyourguide.com\", \"place\": null, \"state\": null, \"title\": null, \"address\": null, \"country\": null, \"created\": null, \"clcEmail\": false, \"language\": null, \"lastName\": \"Mehta\", \"octoNote\": null, \"postCode\": null, \"firstName\": \"Purav\", \"passportId\": null, \"credentials\": null, \"dateOfBirth\": null, \"nationality\": null, \"phoneNumber\": \"+919619701443\", \"organization\": null, \"passportExpDay\": null, \"passportExpYear\": null, \"acceptsMarketing\": false, \"passportExpMonth\": null, \"personalIdNumber\": null, \"phoneNumberLinkable\": \"+919619701443\", \"contactDetailsHidden\": false, \"phoneNumberCountryCode\": null, \"contactDetailsHiddenUntil\": null}, \"viewerRole\": \"OTA_SUPPLIER\", \"creationDate\": 1758008999000, \"salesSegment\": \"OTA\", \"paymentStatus\": \"INVOICED\", \"paidPercentage\": 0, \"productBookings\": [{\"id\": 108128269, \"agent\": null, \"notes\": [], \"fields\": {\"pickup\": false, \"rateId\": 1554162, \"dropoff\": false, \"flexible\": false, \"rateTitle\": \"David and Accademia Gallery VIP Tour in Florence \", \"startHour\": 16, \"comboParent\": false, \"startMinute\": 30, \"startTimeId\": 3052120, \"bookedExtras\": [], \"startTimeStr\": \"16:30\", \"startTimeLabel\": null, \"customizedPrice\": 0, \"partnerBookings\": [], \"customizedBooking\": false, \"totalParticipants\": 4, \"partOfComboBooking\": false, \"customizedStartTime\": null, \"pickupPlaceRoomNumber\": null, \"priceCategoryBookings\": [{\"age\": 0, \"flags\": [], \"extras\": [], \"answers\": [], \"quantity\": 1, \"occupancy\": 1, \"bookedTitle\": \"Adult\", \"leadPassenger\": false, \"bookingAnswers\": [], \"pricingCategory\": {\"id\": 783460, \"flags\": [], \"title\": \"Adult\", \"maxAge\": 99, \"minAge\": 18, \"dependent\": false, \"fullTitle\": \"Adult (18 - 99)\", \"groupSize\": 1, \"occupancy\": 1, \"ageQualified\": true, \"maxPerMaster\": 0, \"ticketCategory\": \"ADULT\", \"defaultCategory\": false, \"internalUseOnly\": false, \"maxDependentSum\": 0, \"masterCategoryId\": null, \"sumDependentCategories\": false}, \"pricingCategoryId\": 783460}, {\"age\": 0, \"flags\": [], \"extras\": [], \"answers\": [], \"quantity\": 1, \"occupancy\": 1, \"bookedTitle\": \"Adult\", \"leadPassenger\": false, \"bookingAnswers\": [], \"pricingCategory\": {\"id\": 783460, \"flags\": [], \"title\": \"Adult\", \"maxAge\": 99, \"minAge\": 18, \"dependent\": false, \"fullTitle\": \"Adult (18 - 99)\", \"groupSize\": 1, \"occupancy\": 1, \"ageQualified\": true, \"maxPerMaster\": 0, \"ticketCategory\": \"ADULT\", \"defaultCategory\": false, \"internalUseOnly\": false, \"maxDependentSum\": 0, \"masterCategoryId\": null, \"sumDependentCategories\": false}, \"pricingCategoryId\": 783460}, {\"age\": 0, \"flags\": [], \"extras\": [], \"answers\": [], \"quantity\": 1, \"occupancy\": 1, \"bookedTitle\": \"Adult\", \"leadPassenger\": false, \"bookingAnswers\": [], \"pricingCategory\": {\"id\": 783460, \"flags\": [], \"title\": \"Adult\", \"maxAge\": 99, \"minAge\": 18, \"dependent\": false, \"fullTitle\": \"Adult (18 - 99)\", \"groupSize\": 1, \"occupancy\": 1, \"ageQualified\": true, \"maxPerMaster\": 0, \"ticketCategory\": \"ADULT\", \"defaultCategory\": false, \"internalUseOnly\": false, \"maxDependentSum\": 0, \"masterCategoryId\": null, \"sumDependentCategories\": false}, \"pricingCategoryId\": 783460}, {\"age\": 0, \"flags\": [], \"extras\": [], \"answers\": [], \"quantity\": 1, \"occupancy\": 1, \"bookedTitle\": \"Adult\", \"leadPassenger\": false, \"bookingAnswers\": [], \"pricingCategory\": {\"id\": 783460, \"flags\": [], \"title\": \"Adult\", \"maxAge\": 99, \"minAge\": 18, \"dependent\": false, \"fullTitle\": \"Adult (18 - 99)\", \"groupSize\": 1, \"occupancy\": 1, \"ageQualified\": true, \"maxPerMaster\": 0, \"ticketCategory\": \"ADULT\", \"defaultCategory\": false, \"internalUseOnly\": false, \"maxDependentSum\": 0, \"masterCategoryId\": null, \"sumDependentCategories\": false}, \"pricingCategoryId\": 783460}], \"selectedFlexDayOption\": null, \"pickupPlaceDescription\": null, \"dropoffPlaceDescription\": null}, \"labels\": [], \"resold\": false, \"seller\": {\"id\": 5197, \"flags\": [], \"title\": \"GetYourGuide\"}, \"status\": \"ARRIVED\", \"vendor\": {\"id\": 96929, \"flags\": [], \"title\": \"Florence With Locals Group Tours\"}, \"channel\": {\"id\": 0, \"flags\": []}, \"endDate\": 1757980800000, \"prepaid\": false, \"product\": {\"id\": 809836, \"flags\": [], \"title\": \"David and Accademia Gallery VIP Tour in Florence \"}, \"currency\": \"ISK\", \"customer\": {\"id\": 0, \"sex\": null, \"tags\": null, \"uuid\": null, \"email\": null, \"place\": null, \"state\": null, \"title\": null, \"address\": null, \"country\": null, \"created\": null, \"clcEmail\": false, \"language\": null, \"lastName\": null, \"octoNote\": null, \"postCode\": null, \"firstName\": null, \"passportId\": null, \"credentials\": null, \"dateOfBirth\": null, \"nationality\": null, \"phoneNumber\": null, \"organization\": null, \"passportExpDay\": null, \"passportExpYear\": null, \"acceptsMarketing\": false, \"passportExpMonth\": null, \"personalIdNumber\": null, \"phoneNumberLinkable\": null, \"contactDetailsHidden\": false, \"phoneNumberCountryCode\": null, \"contactDetailsHiddenUntil\": null}, \"hasNotes\": false, \"paidType\": null, \"affiliate\": null, \"channelId\": \"OTA\", \"rateTitle\": \"David and Accademia Gallery VIP Tour in Florence \", \"startDate\": 1757980800000, \"boxBooking\": false, \"boxProduct\": null, \"cancelNote\": null, \"offerUsage\": null, \"paidAmount\": 0, \"saleSource\": null, \"totalPrice\": 0, \"boxSupplier\": null, \"cancelledBy\": null, \"endDateTime\": 1758043800000, \"productType\": \"ACTIVITIES\", \"creationDate\": 1758008999000, \"extranetUser\": null, \"startDateTime\": 1758040200000, \"discountAmount\": 0, \"lastFourDigits\": null, \"agentCommission\": 0, \"customerInvoice\": {\"total\": 261.92, \"currency\": \"EUR\", \"totalDue\": 261.92, \"totalDiscount\": 0, \"totalCommission\": 0, \"totalSansDiscount\": 261.92, \"totalSansCommission\": 261.92, \"excludedAppliedTaxes\": [], \"includedAppliedTaxes\": []}, \"parentBookingId\": 74181341, \"productCategory\": \"ACTIVITIES\", \"resellerInvoice\": {\"total\": 261.92, \"currency\": \"EUR\", \"totalDue\": 183.34, \"totalDiscount\": 0, \"totalCommission\": 78.58, \"totalSansDiscount\": 261.92, \"totalSansCommission\": 183.34, \"excludedAppliedTaxes\": [], \"includedAppliedTaxes\": []}, \"specialRequests\": \"\\n\", \"affiliateInvoice\": null, \"cancellationDate\": null, \"confirmationCode\": null, \"conversationOpen\": false, \"refundProtection\": false, \"resellerPaidType\": null, \"sellerCommission\": 78.58, \"totalPriceAmount\": 0, \"assignedResources\": [], \"productExternalId\": \"426324P4\", \"totalParticipants\": 4, \"activityCategories\": [], \"discountPercentage\": 0, \"affiliateCommission\": 0, \"bookingCreationDate\": 1758008999000, \"contactDetailsHidden\": false, \"inventoryConfirmFailed\": false, \"productConfirmationCode\": \"WEB-T108128269\", \"externalBookingReference\": null, \"modificationConfigStatus\": null, \"contactDetailsHiddenUntil\": null, \"externalBookingEntityCode\": null, \"externalBookingEntityName\": null, \"inventoryServiceRefNumber\": null, \"conversationAwaitingVendorIds\": []}], \"confirmationCode\": \"GET-74181341\", \"externalBookingReference\": \"GYG2Q92N5FQB\"}","last_sync":"2025-09-28 09:06:46","last_synced":"2025-09-28 09:06:46","created_at":"2025-09-28 11:06:46","updated_at":"2025-10-15 00:48:42","total_amount_paid":0,"expected_amount":0,"payment_notes":null,"payment_status":"unpaid","payment_method":null,"notes":null,"rescheduled":false,"original_date":null,"original_time":null,"rescheduled_at":null},{"id":50,"title":"Skip the Line: Accademia Gallery Priority Entry Ticket with eBook","language":"English","duration":null,"description":null,"date":"2025-09-17","time":"16:00","guide_id":null,"guide_name":null,"booking_channel":"GetYourGuide","booking_reference":null,"paid":false,"cancelled":false,"cancellation_reason":null,"external_id":"GET-74277980","external_source":"bokun","bokun_booking_id":"74277980","bokun_experience_id":null,"bokun_confirmation_code":"GET-74277980","participants":1,"price":null,"customer_name":"SIYU WU","customer_email":"customer-zi75t7ymrv4vs6kd@reply.getyourguide.com","customer_phone":"18657361700","needs_guide_assignment":1,"bokun_data":"{\"id\": 74277980, \"labels\": [], \"seller\": {\"id\": 5197, \"flags\": [], \"title\": \"GetYourGuide\"}, \"channel\": {\"id\": 12298, \"title\": \"GetYourGuide\", \"channelType\": \"OTA\", \"showToSuppliers\": true}, \"currency\": \"EUR\", \"customer\": {\"id\": 173166198, \"sex\": null, \"tags\": null, \"uuid\": null, \"email\": \"customer-zi75t7ymrv4vs6kd@reply.getyourguide.com\", \"place\": null, \"state\": null, \"title\": null, \"address\": null, \"country\": null, \"created\": null, \"clcEmail\": false, \"language\": null, \"lastName\": \"WU\", \"octoNote\": null, \"postCode\": null, \"firstName\": \"SIYU\", \"passportId\": null, \"credentials\": null, \"dateOfBirth\": null, \"nationality\": null, \"phoneNumber\": \"18657361700\", \"organization\": null, \"passportExpDay\": null, \"passportExpYear\": null, \"acceptsMarketing\": false, \"passportExpMonth\": null, \"personalIdNumber\": null, \"phoneNumberLinkable\": \"18657361700\", \"contactDetailsHidden\": false, \"phoneNumberCountryCode\": null, \"contactDetailsHiddenUntil\": null}, \"viewerRole\": \"OTA_SUPPLIER\", \"creationDate\": 1758117395000, \"salesSegment\": \"OTA\", \"paymentStatus\": \"INVOICED\", \"paidPercentage\": 0, \"productBookings\": [{\"id\": 108250265, \"agent\": null, \"notes\": [], \"fields\": {\"pickup\": false, \"rateId\": 1554164, \"dropoff\": false, \"flexible\": false, \"rateTitle\": \"Skip the Line: Accademia Gallery Priority Entry Ticket with eBook\", \"startHour\": 16, \"comboParent\": false, \"startMinute\": 0, \"startTimeId\": 2949382, \"bookedExtras\": [], \"startTimeStr\": \"16:00\", \"startTimeLabel\": \"\", \"customizedPrice\": 0, \"partnerBookings\": [], \"customizedBooking\": false, \"totalParticipants\": 2, \"partOfComboBooking\": false, \"customizedStartTime\": null, \"pickupPlaceRoomNumber\": null, \"priceCategoryBookings\": [{\"age\": 0, \"flags\": [], \"extras\": [], \"answers\": [], \"quantity\": 1, \"occupancy\": 1, \"bookedTitle\": \"Adult\", \"leadPassenger\": false, \"bookingAnswers\": [], \"pricingCategory\": {\"id\": 783460, \"flags\": [], \"title\": \"Adult\", \"maxAge\": 99, \"minAge\": 18, \"dependent\": false, \"fullTitle\": \"Adult (18 - 99)\", \"groupSize\": 1, \"occupancy\": 1, \"ageQualified\": true, \"maxPerMaster\": 0, \"ticketCategory\": \"ADULT\", \"defaultCategory\": false, \"internalUseOnly\": false, \"maxDependentSum\": 0, \"masterCategoryId\": null, \"sumDependentCategories\": false}, \"pricingCategoryId\": 783460}, {\"age\": 0, \"flags\": [], \"extras\": [], \"answers\": [], \"quantity\": 1, \"occupancy\": 1, \"bookedTitle\": \"Adult\", \"leadPassenger\": false, \"bookingAnswers\": [], \"pricingCategory\": {\"id\": 783460, \"flags\": [], \"title\": \"Adult\", \"maxAge\": 99, \"minAge\": 18, \"dependent\": false, \"fullTitle\": \"Adult (18 - 99)\", \"groupSize\": 1, \"occupancy\": 1, \"ageQualified\": true, \"maxPerMaster\": 0, \"ticketCategory\": \"ADULT\", \"defaultCategory\": false, \"internalUseOnly\": false, \"maxDependentSum\": 0, \"masterCategoryId\": null, \"sumDependentCategories\": false}, \"pricingCategoryId\": 783460}], \"selectedFlexDayOption\": null, \"pickupPlaceDescription\": null, \"dropoffPlaceDescription\": null}, \"labels\": [], \"resold\": false, \"seller\": {\"id\": 5197, \"flags\": [], \"title\": \"GetYourGuide\"}, \"status\": \"CONFIRMED\", \"vendor\": {\"id\": 96929, \"flags\": [], \"title\": \"Florence With Locals Group Tours\"}, \"channel\": {\"id\": 0, \"flags\": []}, \"endDate\": 1758153600000, \"prepaid\": false, \"product\": {\"id\": 809838, \"flags\": [], \"title\": \"Skip the Line: Accademia Gallery Priority Entry Ticket with eBook\"}, \"currency\": \"ISK\", \"customer\": {\"id\": 0, \"sex\": null, \"tags\": null, \"uuid\": null, \"email\": null, \"place\": null, \"state\": null, \"title\": null, \"address\": null, \"country\": null, \"created\": null, \"clcEmail\": false, \"language\": null, \"lastName\": null, \"octoNote\": null, \"postCode\": null, \"firstName\": null, \"passportId\": null, \"credentials\": null, \"dateOfBirth\": null, \"nationality\": null, \"phoneNumber\": null, \"organization\": null, \"passportExpDay\": null, \"passportExpYear\": null, \"acceptsMarketing\": false, \"passportExpMonth\": null, \"personalIdNumber\": null, \"phoneNumberLinkable\": null, \"contactDetailsHidden\": false, \"phoneNumberCountryCode\": null, \"contactDetailsHiddenUntil\": null}, \"hasNotes\": false, \"paidType\": null, \"affiliate\": null, \"channelId\": \"OTA\", \"rateTitle\": \"Skip the Line: Accademia Gallery Priority Entry Ticket with eBook\", \"startDate\": 1758067200000, \"boxBooking\": false, \"boxProduct\": null, \"cancelNote\": null, \"offerUsage\": null, \"paidAmount\": 0, \"saleSource\": null, \"totalPrice\": 0, \"boxSupplier\": null, \"cancelledBy\": null, \"endDateTime\": 1758211200000, \"productType\": \"ACTIVITIES\", \"creationDate\": 1758117395000, \"extranetUser\": null, \"startDateTime\": 1758124800000, \"discountAmount\": 0, \"lastFourDigits\": null, \"agentCommission\": 0, \"customerInvoice\": {\"total\": 67.82, \"currency\": \"EUR\", \"totalDue\": 67.82, \"totalDiscount\": 0, \"totalCommission\": 0, \"totalSansDiscount\": 67.82, \"totalSansCommission\": 67.82, \"excludedAppliedTaxes\": [], \"includedAppliedTaxes\": []}, \"parentBookingId\": 74277980, \"productCategory\": \"ACTIVITIES\", \"resellerInvoice\": {\"total\": 67.82, \"currency\": \"EUR\", \"totalDue\": 47.47, \"totalDiscount\": 0, \"totalCommission\": 20.35, \"totalSansDiscount\": 67.82, \"totalSansCommission\": 47.47, \"excludedAppliedTaxes\": [], \"includedAppliedTaxes\": []}, \"specialRequests\": \"\\n\", \"affiliateInvoice\": null, \"cancellationDate\": null, \"confirmationCode\": null, \"conversationOpen\": false, \"refundProtection\": false, \"resellerPaidType\": null, \"sellerCommission\": 20.35, \"totalPriceAmount\": 0, \"assignedResources\": [], \"productExternalId\": \"426324P2\", \"totalParticipants\": 2, \"activityCategories\": [], \"discountPercentage\": 0, \"affiliateCommission\": 0, \"bookingCreationDate\": 1758117395000, \"contactDetailsHidden\": false, \"inventoryConfirmFailed\": false, \"productConfirmationCode\": \"WEB-T108250265\", \"externalBookingReference\": null, \"modificationConfigStatus\": null, \"contactDetailsHiddenUntil\": null, \"externalBookingEntityCode\": null, \"externalBookingEntityName\": null, \"inventoryServiceRefNumber\": null, \"conversationAwaitingVendorIds\": []}], \"confirmationCode\": \"GET-74277980\", \"externalBookingReference\": \"GYGN6FH8YVRY\"}","last_sync":"2025-09-28 09:06:46","last_synced":"2025-09-28 09:06:46","created_at":"2025-09-28 11:06:46","updated_at":"2025-10-15 00:48:42","total_amount_paid":0,"expected_amount":0,"payment_notes":null,"payment_status":"unpaid","payment_method":null,"notes":null,"rescheduled":false,"original_date":null,"original_time":null,"rescheduled_at":null}],"pagination":{"current_page":1,"per_page":5,"total":256,"total_pages":52,"has_next":true,"has_prev":false}}